{
  "$schema": "https://github.com/fastfetch-cli/fastfetch/raw/dev/doc/json_schema.json",
  "logo": {
    "source": "$HOME/atomic.dotfiles/configurations/backgrounds/notion/the-top.jpg",
    "type": "kitty",
    "preserveAspectRatio": true,
    "width": 50,
    "height": 20
  },
  "display": {
    "separator": "➜ ",
  },
  "modules": [
  "break",
    {
      "type": "title",
      "keyWidth": 10,
    },
    {
      "type": "custom",
      "format": "\u001b[34m┌─────────── OS ───────────┐",
    },
    {
      "type": "os",
      "key": "├  ",
      "keyColor": "34", // = color4
    },
    {
      "type": "kernel",
      "key": "├  ",
      "keyColor": "34",
    },
    {
      "type": "packages",
      "format": "{} (pacman)",
      "key": "└  ",
      "keyColor": "34",
    },
    "break",
    {
      "type": "custom",
      "format": "\u001b[31m┌─────────── WM ───────────┐",
    },
    {
      "type": "wm",
      "key": "├  ",
      "keyColor": "31",
    },
    {
      "type": "shell",
      "key": "├  ",
      "keyColor": "31",
    },
    {
      "type": "terminal",
      "key": "├  ",
      "keyColor": "31",
    },
    {
      "type": "cursor",
      "key": "├ 󰇀 ",
      "keyColor": "31",
    },
    {
      "type": "theme",
      "key": "├  ",
      "keyColor": "31",
    },
    {
      "type": "terminalfont",
      "key": "└  ",
      "keyColor": "31",
    },
    "break",
    {
      "type": "custom",
      "format": "\u001b[36m┌─────────── System ───────────┐",
    },
    {
      "type": "bootmgr",
      "key": "├ 󰛆 ",
      "keyColor": "36",
    },
    {
      "type": "uptime",
      "key": "├  ",
      "keyColor": "36",
    },
    {
      "type": "datetime",
      "format": "{1}-{3}-{11}",
      "key": "├  ",
      "keyColor": "36",
    },
    {
      "type": "gpu",
      "key": "├  ",
      "keyColor": "36",
    },
    {
      "type": "cpu",
      "key": "└  ",
      "keyColor": "36",
    },
    "break",
    {
      "type": "custom",
      "format": "\u001b[90m  \u001b[31m  \u001b[32m  \u001b[33m  \u001b[34m  \u001b[35m  \u001b[36m  \u001b[37m ",
    },
    "break",
    "break",
  ],
}
